\relax 
\citation{Vander}
\citation{Strunk,Mettam}
\Newlabel{a}{a}
\Newlabel{b}{b}
\@writefile{toc}{\contentsline {section}{\numberline {1}Main Text}{1}}
\newlabel{main}{{1}{1}}
\@writefile{toc}{\contentsline {subsection}{\numberline {1.1} Structure}{1}}
\@writefile{toc}{\contentsline {subsection}{\numberline {1.2} Tables}{1}}
\@writefile{lot}{\contentsline {table}{\numberline {1}{\ignorespaces An example of a table.}}{2}}
\@writefile{toc}{\contentsline {subsection}{\numberline {1.3} Construction of references}{2}}
\@writefile{toc}{\contentsline {subsection}{\numberline {1.4}Section headings}{2}}
\@writefile{toc}{\contentsline {subsection}{\numberline {1.5}General guidelines for the preparation of your text}{2}}
\@writefile{toc}{\contentsline {subsection}{\numberline {1.6}File naming and delivery}{2}}
\@writefile{toc}{\contentsline {subsection}{\numberline {1.7}Footnotes}{2}}
\@writefile{toc}{\contentsline {section}{\numberline {2}Illustrations}{2}}
\@writefile{lof}{\contentsline {figure}{\numberline {1}{\ignorespaces (a) first picture; (b) second picture.}}{2}}
\bibcite{Vander}{{1}{}{{}}{{}}}
\bibcite{Strunk}{{2}{}{{}}{{}}}
\bibcite{Mettam}{{3}{}{{}}{{}}}
\providecommand\NAT@force@numbers{}\NAT@force@numbers
\@writefile{toc}{\contentsline {section}{\numberline {3}Equations}{3}}
\@writefile{toc}{\contentsline {section}{\numberline {4}Online license transfer}{3}}
\@writefile{toc}{\let\numberline\tmptocnumberline}
\@writefile{toc}{\contentsline {section}{\numberline {Appendix \nobreakspace  {}A}An example appendix}{3}}
\@writefile{toc}{\contentsline {subsection}{\numberline {A.1}Example of a sub-heading within an appendix}{3}}
\newlabel{lastpage}{{A.1}{3}}
