\relax 
\citation{gunasekaran2011}
\citation{elmaraghy2012}
\citation{christensen2013}
\citation{azab2013}
\citation{koren2017}
\citation{tolio2010}
\citation{rosio2012}
\Newlabel{a}{a}
\Newlabel{b}{b}
\@writefile{toc}{\contentsline {section}{\numberline {1}Introduction}{1}}
\newlabel{sec_intro}{{1}{1}}
\citation{tolio2008}
\citation{rudtsch2013}
\citation{tolio2013}
\citation{colledani2009}
\providecommand*\caption@xref[2]{\@setref\relax\@undefined{#1}}
\newlabel{fig_attributes}{{\caption@xref {fig_attributes}{ on input line 228}}{2}}
\@writefile{lof}{\contentsline {figure}{\numberline {1}{\ignorespaces Attributes of a single scenario and scenarios in a multi-period problem\relax }}{2}}
\@writefile{toc}{\contentsline {section}{\numberline {2}Problem Description and Design Approach}{2}}
\newlabel{sec_approach}{{2}{2}}
\@writefile{toc}{\contentsline {subsection}{\numberline {2.1}Inputs information pre-processing}{2}}
\newlabel{sec_preprocessing}{{2.1}{2}}
\newlabel{fig_idef0}{{\caption@xref {fig_idef0}{ on input line 259}}{3}}
\@writefile{lof}{\contentsline {figure}{\numberline {2}{\ignorespaces IDEF0 of the Versatile System Engineering Platform\relax }}{3}}
\@writefile{toc}{\contentsline {subsection}{\numberline {2.2}System layout generation and evaluation of KPIs}{3}}
\@writefile{toc}{\contentsline {section}{\numberline {3}The Design Platform and Workflow}{3}}
\newlabel{sec_platform}{{3}{3}}
\newlabel{fig_platform2}{{\caption@xref {fig_platform2}{ on input line 278}}{3}}
\@writefile{lof}{\contentsline {figure}{\numberline {3}{\ignorespaces Optimization workflow\relax }}{3}}
\@writefile{toc}{\contentsline {subsection}{\numberline {3.1}Analysis tools and software blocks}{3}}
\@writefile{toc}{\contentsline {paragraph}{Assembly System Balancing}{3}}
\@writefile{toc}{\contentsline {paragraph}{Performance Evaluation}{3}}
\@writefile{toc}{\contentsline {paragraph}{Multi-objective Performance Optimization}{3}}
\@writefile{toc}{\contentsline {paragraph}{Discrete Event Simulation}{4}}
\@writefile{toc}{\contentsline {subsection}{\numberline {3.2}Information exchange}{4}}
\newlabel{fig_platformpage1}{{\caption@xref {fig_platformpage1}{ on input line 318}}{4}}
\@writefile{lof}{\contentsline {figure}{\numberline {4}{\ignorespaces Scenarios management interface: product-mixes and quantities are inserted by the user\relax }}{4}}
\newlabel{fig_platformpage2}{{\caption@xref {fig_platformpage2}{ on input line 335}}{4}}
\@writefile{lof}{\contentsline {figure}{\numberline {5}{\ignorespaces Modules management interface\relax }}{4}}
\@writefile{toc}{\contentsline {subsection}{\numberline {3.3}Output results, visualization and interpretation}{4}}
\newlabel{fig_platformpage3}{{\caption@xref {fig_platformpage3}{ on input line 347}}{4}}
\@writefile{lof}{\contentsline {figure}{\numberline {6}{\ignorespaces KPIs management interface\relax }}{4}}
\newlabel{fig_scenariotree}{{\caption@xref {fig_scenariotree}{ on input line 384}}{5}}
\@writefile{lof}{\contentsline {figure}{\numberline {7}{\ignorespaces Scenario paths and corresponding visualization of the output\relax }}{5}}
\@writefile{toc}{\contentsline {section}{\numberline {4}Application to Industrial Use Case}{5}}
\newlabel{sec_usecase}{{4}{5}}
\@writefile{toc}{\contentsline {subsection}{\numberline {4.1}Problem description}{5}}
\@writefile{toc}{\contentsline {subsection}{\numberline {4.2}Application of the platform}{5}}
\@writefile{toc}{\contentsline {subsection}{\numberline {4.3}Results obtained from the analysis}{5}}
\bibstyle{unsrt}
\bibdata{bibl}
\bibcite{gunasekaran2011}{{1}{}{{}}{{}}}
\bibcite{elmaraghy2012}{{2}{}{{}}{{}}}
\bibcite{christensen2013}{{3}{}{{}}{{}}}
\bibcite{azab2013}{{4}{}{{}}{{}}}
\bibcite{koren2017}{{5}{}{{}}{{}}}
\bibcite{tolio2010}{{6}{}{{}}{{}}}
\bibcite{rosio2012}{{7}{}{{}}{{}}}
\bibcite{tolio2008}{{8}{}{{}}{{}}}
\bibcite{rudtsch2013}{{9}{}{{}}{{}}}
\bibcite{tolio2013}{{10}{}{{}}{{}}}
\bibcite{colledani2009}{{11}{}{{}}{{}}}
\providecommand\NAT@force@numbers{}\NAT@force@numbers
\newlabel{fig_nuvola}{{\caption@xref {fig_nuvola}{ on input line 448}}{6}}
\@writefile{lof}{\contentsline {figure}{\numberline {8}{\ignorespaces Results when applying the platform to a case-study.\relax }}{6}}
\@writefile{lot}{\contentsline {table}{\numberline {1}{\ignorespaces Solutions comparison in terms of total expected cost\relax }}{6}}
\newlabel{tab_solutions}{{1}{6}}
\@writefile{toc}{\contentsline {section}{\numberline {5}Conclusions}{6}}
\newlabel{sec_conclusions}{{5}{6}}
\@writefile{toc}{\contentsline {section}{\numberline {6}Acknowledgments}{6}}
\newlabel{sec_acknowledgments}{{6}{6}}
\newlabel{lastpage}{{6}{6}}
